^E:\Arbeitsverzeichnisse\THM\4. Semester\HS (3 CP)\hauptseminar-spectre-meltdown\Spectre Test\Spectre Test.vcxproj
E:\Arbeitsverzeichnisse\THM\4. Semester\HS (3 CP)\hauptseminar-spectre-meltdown\Spectre Test\Release\Spectre Test.ipdb
E:\Arbeitsverzeichnisse\THM\4. Semester\HS (3 CP)\hauptseminar-spectre-meltdown\Spectre Test\Release\Spectre Test.iobj
